{
  "project_info": {
    "project_number": "554472618874",
    "firebase_url": "https://owoproject-d7fd0.firebaseio.com",
    "project_id": "owoproject-d7fd0",
    "storage_bucket": "owoproject-d7fd0.appspot.com"
  },
  "client": [
    {
      "client_info": {
        "mobilesdk_app_id": "1:554472618874:android:a8b3688edc078a5a",
        "android_client_info": {
          "package_name": "com.example.lvlciizz.owo_project"
        }
      },
      "oauth_client": [
        {
          "client_id": "554472618874-71fm7lvv4pnlou7e7r8fh9un9828h7ro.apps.googleusercontent.com",
          "client_type": 1,
          "android_info": {
            "package_name": "com.example.lvlciizz.owo_project",
            "certificate_hash": "15e4a0de63cca014d47717b6203c8ef5e700ebaf"
          }
        },
        {
          "client_id": "554472618874-npn8vuvu0oqss0iptm8huo7v6p30tf6d.apps.googleusercontent.com",
          "client_type": 3
        }
      ],
      "api_key": [
        {
          "current_key": "AIzaSyAc3SPitMsY-rE4jAAZXggvfCg-pJRcdOo"
        }
      ],
      "services": {
        "analytics_service": {
          "status": 1
        },
        "appinvite_service": {
          "status": 2,
          "other_platform_oauth_client": [
            {
              "client_id": "554472618874-npn8vuvu0oqss0iptm8huo7v6p30tf6d.apps.googleusercontent.com",
              "client_type": 3
            }
          ]
        },
        "ads_service": {
          "status": 2
        }
      }
    }
  ],
  "configuration_version": "1"
}